id  , firstname  , lastname     , date_of_birth, date_of_register
100 , Merci      , Fiann        , 1958-06-13   , 2022-02-03
101 , Wanda      , Hylan        , 1974-08-30   , 2020-06-03
102 , Mignon     , Hirsch       , 1964-10-27   , 2020-03-04
103 , Esmeralda  , Alisia       , 1976-06-29   , 2020-06-19
104 , Cacilie    , Parsaye      , 1927-11-03   , 2020-12-10
105 , Benita     , Cath         , 1975-04-07   , 2021-07-05
106 , Ermengarde , Sawtelle     , 1928-12-05   , 2021-09-07
107 , Beth       , Abernon      , 1934-01-18   , 2020-11-07
108 , Gaylene    , Rozanna      , 2002-08-24   , 2021-10-15
109 , Jsandye    , Leifeste     , 1930-10-24   , 2022-07-08
110 , Marleah    , Lia          , 2009-02-10   , 2021-07-16
111 , Luci       , Modie        , 2010-08-09   , 2020-04-15
112 , Brietta    , O'Rourke     , 1907-09-15   , 2020-08-27
113 , Raquela    , Iiette       , 2000-08-05   , 2020-08-16
114 , Kellen     , Percy        , 1996-05-31   , 2021-01-10
115 , Hollie     , Astra        , 1908-03-10   , 2022-06-26
116 , Jsandye    , Yoko         , 1967-01-17   , 2021-01-10
117 , Violet     , Amand        , 1989-02-08   , 2022-01-07
118 , Ida        , McAdams      , 1921-04-16   , 2021-12-05
119 , Florencia  , Lorain       , 1932-08-29   , 2020-09-11
120 , Kerrin     , Annice       , 1946-10-13   , 2022-07-01
121 , Ninnetta   , Ricki        , 1900-08-16   , 2020-03-16
122 , Grier      , Afton        , 1912-09-11   , 2021-11-17
123 , Dianemarie , Emmy         , 1910-10-02   , 2020-02-06
124 , Johna      , Callista     , 1979-11-04   , 2020-10-15
125 , Nadine     , Skell        , 1960-05-28   , 2020-10-09
126 , Cindelyn   , Gahl         , 1997-11-04   , 2020-06-19
127 , Michaelina , Cleo         , 2018-11-16   , 2021-11-22
128 , Frieda     , Cohdwell     , 1988-03-05   , 2022-01-09
129 , Kylynn     , Timon        , 1935-11-23   , 2020-06-23
130 , Linzy      , Mata         , 1928-05-26   , 2021-02-14
131 , Drucie     , Tarrant      , 1977-11-27   , 2021-01-08
132 , Gerrie     , Seumas       , 2001-08-13   , 2020-06-21
133 , Gretal     , Marlie       , 1970-11-13   , 2021-05-09
134 , Gilligan   , Yerkovich    , 1962-06-28   , 2021-09-10
135 , Charlena   , Brotherson   , 2004-11-22   , 2021-10-08
136 , Susette    , Emmy         , 1918-04-30   , 2020-01-07
137 , Janey      , Swanhildas   , 2004-05-16   , 2020-12-03
138 , Merle      , Sparhawk     , 1978-01-13   , 2022-07-12
139 , Charmaine  , Clywd        , 1954-07-28   , 2022-07-03
140 , Concettina , Nea          , 1977-05-14   , 2021-12-21
141 , Candi      , Kunin        , 1944-06-02   , 2021-12-17
142 , Rozele     , Maurine      , 1973-10-26   , 2022-01-06
143 , Cathyleen  , Lamoree      , 2017-07-07   , 2020-03-19
144 , Sean       , Flyn         , 1981-05-18   , 2022-01-12
145 , Calla      , Howlyn       , 1911-10-20   , 2022-06-08
146 , Annecorinne, Granoff      , 1961-09-30   , 2020-05-17
147 , Jean       , MacIntosh    , 1952-09-20   , 2022-04-24
148 , Audrie     , Craggie      , 1916-02-07   , 2022-02-01
149 , Averyl     , Nisbet       , 1967-08-18   , 2021-03-25
150 , Marcelline , Kellby       , 1908-05-07   , 2020-10-22
151 , Tabbatha   , Iaverne      , 1976-04-04   , 2021-07-30
152 , Di         , Hutchison    , 1920-01-03   , 2021-07-25
153 , Deirdre    , Prober       , 1900-09-26   , 2022-07-22
154 , Binny      , Dosia        , 1996-06-04   , 2021-06-28
155 , Therine    , Salchunas    , 2006-03-16   , 2020-09-28
156 , Ezmeralda  , Stoller      , 1910-09-22   , 2020-01-27
157 , Andree     , Israeli      , 2015-10-13   , 2020-05-16
158 , Fredericka , Morehouse    , 1966-07-25   , 2020-09-25
159 , Candi      , Nester       , 1986-10-19   , 2021-12-29
160 , Viki       , Stanwood     , 2007-08-08   , 2020-10-03
161 , Hyacinthe  , Marijo       , 1936-03-04   , 2021-04-02
162 , Pamella    , Fulmer       , 2011-01-21   , 2022-01-17
163 , Jinny      , Corrine      , 1987-12-03   , 2020-02-22
164 , Eugine     , Joseph       , 1909-06-18   , 2021-04-30
165 , Nita       , Simmonds     , 1948-05-01   , 2021-04-16
166 , Nessie     , Desai        , 2018-05-12   , 2021-03-25
167 , Minda      , Zenas        , 2012-01-15   , 2020-06-22
168 , Tracey     , Sibyls       , 1954-11-29   , 2022-02-19
169 , Emilia     , Ashok        , 1936-12-28   , 2021-11-28
170 , Monika     , Hoenack      , 1924-08-15   , 2022-07-15
171 , Theodora   , Delp         , 1984-03-28   , 2021-09-04
172 , Bobinette  , Clywd        , 2007-03-14   , 2021-03-21
173 , Dede       , Maxi         , 1985-10-10   , 2020-09-15
174 , Ashlee     , Charmine     , 1927-01-09   , 2022-01-14
175 , Jordan     , Bendick      , 2011-02-11   , 2021-07-22
176 , Gusella    , Ortrude      , 1969-07-19   , 2022-02-07
177 , Mignon     , Levey        , 1998-08-30   , 2021-06-21
178 , Nerta      , Secrest      , 2016-09-04   , 2021-08-27
179 , Libbie     , Papageno     , 1960-10-30   , 2021-02-08
180 , Mariann    , Justinn      , 1916-06-08   , 2022-07-17
181 , Tersina    , Atonsah      , 1989-07-13   , 2022-05-15
182 , Dominga    , Rona         , 1962-05-03   , 2020-07-20
183 , Betta      , Raseda       , 1976-10-16   , 2020-10-27
184 , Glynnis    , Halla        , 1951-04-13   , 2021-07-12
185 , Loree      , Morgun       , 1902-07-25   , 2022-04-22
186 , Carmencita , Rogerio      , 2014-07-30   , 2020-12-17
187 , Donnie     , Dalli        , 1916-11-30   , 2022-02-09
188 , Jacquetta  , Flita        , 1961-12-12   , 2021-08-05
189 , Merry      , Nea          , 1937-08-20   , 2020-08-14
190 , Thalia     , Destinee     , 1966-11-11   , 2021-09-19
191 , Netty      , Ader         , 1905-06-29   , 2022-03-16
192 , Helena     , Adlare       , 1943-04-19   , 2020-05-12
193 , Caritta    , Albertine    , 1979-07-30   , 2020-04-23
194 , Miquela    , Christine    , 1990-03-26   , 2020-04-12
195 , Kittie     , Amadas       , 1972-10-23   , 2020-01-13
196 , Winifred   , Rosemary     , 1909-06-01   , 2020-12-20
197 , Emmey      , Wilona       , 2009-11-25   , 2020-03-23
198 , Riannon    , Reneta       , 1985-08-13   , 2022-03-11
199 , Ana        , Kronfeld     , 1948-12-18   , 2020-10-17
200 , Rani       , Rubie        , 1997-09-18   , 2020-06-12
201 , Betta      , Toffic       , 2009-09-25   , 2020-09-21
202 , Siana      , Cookie       , 1923-09-08   , 2020-04-11
203 , Odessa     , Wenda        , 2014-05-09   , 2020-04-21
204 , Valeda     , Hebner       , 1983-04-19   , 2020-07-18
205 , Aryn       , Richers      , 1924-07-09   , 2021-07-30
206 , Mireielle  , Hertzfeld    , 1987-12-10   , 2022-07-31
207 , Hermione   , Joli         , 1994-04-01   , 2020-11-04
208 , Kirbee     , Cadmar       , 1981-08-25   , 2022-05-15
209 , Paola      , O'Carroll    , 1942-11-21   , 2020-04-03
210 , Mildrid    , Pauly        , 1903-03-22   , 2022-07-16
211 , Krystle    , Goldina      , 1997-06-23   , 2021-10-16
212 , Lorie      , Knowling     , 1934-12-06   , 2022-07-22
213 , Cassandra  , Devlen       , 1988-05-27   , 2020-03-13
214 , Lily       , Cloris       , 2015-01-17   , 2020-12-06
215 , Isa        , Himelman     , 1925-01-20   , 2021-06-24
216 , Kate       , Hathaway     , 1923-07-10   , 2020-08-18
217 , Elyssa     , Alarise      , 1921-07-15   , 2022-04-03
218 , Jaime      , Goode        , 1951-06-17   , 2022-02-20
219 , Jere       , Hoenack      , 2013-02-10   , 2020-07-11
220 , Riannon    , Felizio      , 1970-08-10   , 2021-02-18
221 , Alyssa     , Toni         , 1907-10-17   , 2022-03-06
222 , Madeleine  , Riva         , 1972-02-28   , 2020-01-28
223 , Benita     , Belldas      , 1910-03-08   , 2021-02-01
224 , Leeanne    , Cosenza      , 1912-09-14   , 2020-04-07
225 , Roxane     , Erskine      , 2012-09-20   , 2020-04-15
226 , Annecorinne, Gilbertson   , 1958-01-30   , 2021-08-07
227 , Harmonia   , Etom         , 1925-05-29   , 2021-11-18
228 , Cam        , Mott         , 1921-04-19   , 2021-11-11
229 , Caritta    , Trinetta     , 2000-04-12   , 2020-11-15
230 , Layla      , Khorma       , 1949-10-01   , 2020-02-22
231 , Wilma      , Sasnett      , 1986-09-25   , 2022-06-26
232 , Heida      , Dichy        , 1922-12-16   , 2021-07-16
233 , Lynea      , Rubie        , 1997-04-11   , 2021-10-18
234 , Daphne     , Niles        , 1987-01-16   , 2020-09-22
235 , Brynna     , Hepsibah     , 2009-04-04   , 2021-05-16
236 , Jessamyn   , Madox        , 1986-11-26   , 2020-08-20
237 , Trudie     , Pozzy        , 1959-04-16   , 2020-06-27
238 , Loree      , Bryna        , 1914-05-01   , 2022-01-12
239 , Jean       , Peti         , 1997-10-27   , 2020-07-26
240 , Daphne     , Egbert       , 2013-03-07   , 2020-12-08
241 , Shannah    , Ajay         , 1995-11-17   , 2021-02-05
242 , Marleah    , Kaja         , 1938-05-07   , 2020-11-13
243 , Renae      , Concha       , 1968-08-11   , 2020-12-30
244 , Glynnis    , Quent        , 1953-02-22   , 2020-12-20
245 , Penelopa   , Grimbly      , 1990-04-07   , 2021-04-01
246 , Gabriellia , Connelly     , 1978-01-17   , 2021-01-03
247 , Gale       , Tiffa        , 1973-12-07   , 2022-07-22
248 , Madalyn    , Cecile       , 1900-11-15   , 2020-03-10
249 , Leanna     , Harday       , 1925-08-01   , 2021-01-06
250 , Adore      , Tufts        , 1940-02-19   , 2022-03-05
251 , Dominga    , Paton        , 1935-05-07   , 2021-11-24
252 , Ida        , An           , 1929-03-07   , 2022-06-02
253 , Fina       , Shelba       , 2013-04-14   , 2020-12-17
254 , Melodie    , Weitman      , 1907-06-18   , 2020-09-11
255 , Clarice    , Montgomery   , 1900-05-06   , 2021-06-22
256 , Anthia     , Rurik        , 2008-12-21   , 2021-10-07
257 , Philis     , Malvino      , 1930-09-27   , 2022-01-28
258 , Zia        , Artie        , 1914-10-12   , 2021-01-24
259 , Esmeralda  , Maribeth     , 2016-12-05   , 2022-07-02
260 , Starla     , Vary         , 1917-11-29   , 2022-04-09
261 , Amelia     , Publia       , 1913-03-08   , 2022-06-14
262 , Gaylene    , Tippets      , 1912-05-24   , 2021-09-14
263 , Gilda      , Yuille       , 1950-03-02   , 2022-03-25
264 , Mallory    , Thunell      , 1978-08-08   , 2022-05-10
265 , Nataline   , Carri        , 1922-04-09   , 2022-01-15
266 , Mureil     , Germann      , 1906-01-08   , 2021-05-19
267 , Fernande   , Hubert       , 1980-02-05   , 2020-07-22
268 , Orsola     , Monaco       , 1958-02-17   , 2020-06-13
269 , Juliane    , Maurine      , 1910-12-10   , 2020-01-25
270 , Tybie      , Therine      , 1952-09-15   , 2020-09-18
271 , Iseabal    , Juan         , 2004-12-04   , 2021-02-11
272 , Loree      , Mata         , 1907-07-02   , 2022-04-23
273 , Cecile     , Georas       , 1979-06-04   , 2021-08-26
274 , Blinni     , Dyche        , 1981-11-15   , 2021-01-14
275 , Phedra     , Damarra      , 1992-09-21   , 2021-09-21
276 , Bill       , Hoenack      , 1909-04-07   , 2020-11-27
277 , Alyssa     , Ries         , 1929-12-15   , 2022-03-10
278 , Leeanne    , Alisia       , 1974-01-08   , 2020-12-23
279 , Desirae    , Vernier      , 1967-11-05   , 2022-03-16
280 , Evaleen    , Hortensia    , 2011-08-26   , 2021-05-22
281 , Madalyn    , Dulciana     , 1931-11-27   , 2021-10-09
282 , Gerrie     , Zaslow       , 1977-09-04   , 2021-12-23
283 , Jan        , Weitman      , 1977-05-21   , 2022-05-14
284 , Joleen     , Grobe        , 2014-12-06   , 2021-10-09
285 , Ruthe      , Brenn        , 2008-10-22   , 2021-02-10
286 , Vita       , Ardeha       , 1989-08-26   , 2022-05-24
287 , Britte     , Bettine      , 2004-01-27   , 2021-10-27
288 , Dominga    , Philoo       , 1993-05-19   , 2021-12-04
289 , Kial       , Ilka         , 1955-10-11   , 2021-10-02
290 , Donetta    , Kaja         , 1921-02-11   , 2022-05-10
291 , Aryn       , Morehouse    , 1912-11-27   , 2021-04-19
292 , Karina     , Chandler     , 2003-01-26   , 2020-10-13
293 , Nicoli     , McLaughlin   , 1936-11-09   , 2021-12-15
294 , Cissiee    , Auberbach    , 1951-05-06   , 2022-05-20
295 , Jolyn      , Berl         , 1939-02-01   , 2022-03-27
296 , Amii       , Kannry       , 1974-07-12   , 2020-11-19
297 , Lily       , Aurelio      , 1975-03-13   , 2021-12-06
298 , Tatiania   , Zamora       , 1976-06-15   , 2022-01-11
299 , Sonni      , Riordan      , 1964-05-03   , 2022-07-02
300 , Consuela   , Barbey       , 1993-06-06   , 2022-04-22
301 , Mara       , Havens       , 2007-08-11   , 2020-09-05
302 , Kirstin    , Bethany      , 1923-02-02   , 2022-02-24
303 , Madelle    , Terrence     , 1986-05-17   , 2020-12-01
304 , Katharina  , Tatianas     , 1919-07-17   , 2022-03-04
305 , Arabel     , Cordi        , 2008-06-05   , 2021-02-22
306 , Wendi      , Secrest      , 1996-03-10   , 2020-03-18
307 , Danika     , Anton        , 2008-11-12   , 2022-01-30
308 , Aaren      , Camden       , 1902-07-08   , 2020-07-11
309 , Amara      , Fax          , 1968-03-12   , 2021-05-15
310 , Fayre      , Nikaniki     , 2009-04-01   , 2021-01-02
311 , Ivett      , Rozanna      , 2011-06-01   , 2020-04-30
312 , Dione      , Gregrory     , 1943-09-09   , 2022-02-15
313 , Tobe       , Konyn        , 1972-04-18   , 2020-11-26
314 , Ardenia    , Letsou       , 1984-07-14   , 2022-04-11
315 , Myrtice    , O'Carroll    , 1983-02-06   , 2020-12-20
316 , Christian  , Loring       , 2008-06-16   , 2022-05-27
317 , Dawn       , Berriman     , 1990-06-16   , 2021-11-20
318 , Vivia      , Martsen      , 2001-05-20   , 2021-12-13
319 , Anallese   , Grobe        , 2012-03-24   , 2020-05-16
320 , Jackie     , Cutlerr      , 1953-05-11   , 2020-11-22
321 , Barbi      , Ulphia       , 1982-05-04   , 2020-02-14
322 , Lauryn     , Charity      , 1904-07-01   , 2022-06-12
323 , Lorie      , Dimitris     , 1986-02-03   , 2021-11-25
324 , Madeleine  , Thema        , 2002-11-29   , 2020-04-29
325 , Carmencita , Alrich       , 1986-01-10   , 2020-03-16
326 , Corly      , Septima      , 2004-08-27   , 2021-11-04
327 , Madalyn    , Oscar        , 1962-06-12   , 2021-06-10
328 , Fina       , Tybald       , 1998-07-30   , 2020-07-21
329 , Sharai     , Japeth       , 1910-11-19   , 2020-12-07
330 , Eolanda    , LaRue        , 1902-04-05   , 2021-07-03
331 , Fernande   , Mallon       , 1990-10-20   , 2020-05-23
332 , Aurelie    , Reinke       , 1987-09-09   , 2021-06-04
333 , Addia      , Norrie       , 1932-12-15   , 2021-05-21
334 , Glynnis    , Bobbee       , 1958-02-03   , 2021-10-08
335 , Lynde      , Adlare       , 1987-01-10   , 2020-10-09
336 , Kalina     , Lattie       , 1990-09-06   , 2020-11-17
337 , Flo        , Rhu          , 1972-02-04   , 2020-01-25
338 , Cassondra  , Sacken       , 1900-01-18   , 2021-05-29
339 , Joeann     , Mallon       , 1970-02-08   , 2020-03-24
340 , Vonny      , Imelida      , 2007-06-30   , 2020-04-22
341 , Agnese     , Elsinore     , 1984-04-21   , 2022-06-07
342 , Tobe       , Dawkins      , 1957-03-21   , 2020-05-03
343 , Genevra    , Goerke       , 1959-02-02   , 2022-03-24
344 , Rozele     , Rudolph      , 1999-02-17   , 2021-08-03
345 , Amii       , Ogren        , 1949-04-08   , 2020-08-10
346 , Tobe       , Penelopa     , 1920-11-03   , 2022-05-13
347 , Kenna      , Libna        , 1917-08-30   , 2020-01-02
348 , Flo        , Uund         , 1914-11-28   , 2022-04-11
349 , Glynnis    , Wittie       , 2017-12-21   , 2020-02-25
350 , Dulce      , Norrie       , 2003-02-09   , 2022-06-12
351 , Sissy      , Forrer       , 1953-02-05   , 2021-09-28
352 , Jessy      , Sherrie      , 1901-02-19   , 2022-03-18
353 , Averyl     , Allare       , 2017-06-01   , 2022-03-11
354 , Tilly      , Ammann       , 1941-05-16   , 2022-05-23
355 , Johna      , Ellerey      , 1955-02-17   , 2021-01-18
356 , Giustina   , Prouty       , 1919-06-24   , 2020-03-05
357 , Dorthy     , Michella     , 2011-04-29   , 2020-03-27
358 , Shandie    , Elo          , 1936-08-02   , 2020-03-18
359 , Fidelia    , Desai        , 2017-05-23   , 2022-01-04
360 , Sharai     , Pattin       , 1918-01-03   , 2022-01-29
361 , Sarette    , Donell       , 1963-10-23   , 2020-08-03
362 , Danny      , Voletta      , 1984-07-06   , 2022-01-23
363 , Tami       , Carey        , 1982-04-22   , 2021-12-25
364 , Mamie      , Kalinda      , 1950-01-08   , 2021-05-29
365 , Shell      , Azeria       , 1905-02-14   , 2021-02-20
366 , Beatriz    , Dex          , 2019-12-15   , 2020-06-09
367 , Misha      , Zina         , 1910-11-28   , 2022-05-08
368 , Roxane     , Ellord       , 1952-04-28   , 2020-10-09
369 , Abbie      , Denis        , 1920-05-01   , 2022-02-10
370 , Gaylene    , Crudden      , 2014-11-21   , 2020-09-29
371 , Mahalia    , Nahum        , 1926-08-06   , 2020-02-01
372 , Emma       , Pip          , 1932-09-05   , 2021-10-12
373 , Blondelle  , Zina         , 2018-02-27   , 2021-11-07
374 , Kayla      , Etom         , 1920-11-17   , 2022-02-24
375 , Adore      , Si           , 1912-09-30   , 2020-11-20
376 , Britni     , Sinegold     , 2007-08-01   , 2020-08-01
377 , Dari       , Alrich       , 1933-05-19   , 2021-08-09
378 , Liana      , Shelba       , 1975-03-18   , 2022-02-06
379 , Elise      , Ventre       , 1979-09-02   , 2022-07-05
380 , Emilia     , Wadell       , 1985-02-17   , 2020-05-11
381 , Rosabelle  , Pyle         , 2010-01-05   , 2022-04-23
382 , Libbie     , Annice       , 1968-07-16   , 2020-10-07
383 , Desirae    , Philipp      , 1906-03-25   , 2021-04-29
384 , Wynne      , Frodi        , 1975-08-28   , 2020-06-14
385 , Sean       , Mehalek      , 1979-04-09   , 2022-05-21
386 , Roberta    , Jena         , 1934-11-25   , 2020-07-23
387 , Heida      , Bouchard     , 1961-02-12   , 2021-07-11
388 , Jasmina    , McCutcheon   , 1920-02-13   , 2022-02-07
389 , Karolina   , Earlie       , 1997-10-20   , 2020-05-12
390 , Christy    , Margarete    , 1973-03-30   , 2021-04-03
391 , Hannis     , Woodberry    , 1910-06-03   , 2020-01-10
392 , Modestia   , Rustice      , 1983-10-23   , 2021-06-30
393 , Ida        , Letsou       , 1927-10-27   , 2022-01-23
394 , Evita      , Burnside     , 1938-08-05   , 2021-08-31
395 , Margarette , Berard       , 2000-02-20   , 2021-08-17
396 , Jasmina    , Flita        , 1997-07-08   , 2021-04-25
397 , Annice     , Toni         , 2011-11-06   , 2020-11-12
398 , Leia       , Kristi       , 1939-02-18   , 2021-02-11
399 , Sharai     , Gibbeon      , 1924-07-08   , 2020-02-21
400 , Steffane   , Cassius      , 1903-07-31   , 2022-03-02
401 , Helsa      , Rad          , 1920-05-30   , 2020-07-08
402 , Ann-Marie  , Fontana      , 2018-02-10   , 2022-06-26
403 , Gaylene    , Waldron      , 2019-01-08   , 2021-04-17
404 , Julieta    , Dielu        , 1966-10-20   , 2021-05-05
405 , Kayla      , Arley        , 1937-01-21   , 2020-07-28
406 , Letizia    , Ambrosia     , 1942-03-19   , 2021-01-20
407 , Kaja       , Cath         , 1962-11-10   , 2020-10-28
408 , Minne      , Bury         , 1927-01-31   , 2021-10-22
409 , Justinn    , Edison       , 1909-07-10   , 2020-10-22
410 , Sam        , Dowski       , 1955-12-14   , 2021-12-02
411 , Lusa       , Ingra        , 1969-05-30   , 2020-11-02
412 , Bobbi      , Hamil        , 1984-03-22   , 2021-06-03
413 , Kalina     , Eckblad      , 1915-03-15   , 2021-08-10
414 , Veda       , Goode        , 1951-11-26   , 2021-08-27
415 , Kamilah    , Rosemary     , 1948-01-24   , 2020-08-17
416 , Ardeen     , Uund         , 1916-03-31   , 2022-07-10
417 , Maisey     , Frodi        , 1959-12-05   , 2021-05-06
418 , Fernande   , Palocz       , 1923-09-06   , 2020-05-10
419 , Peri       , Blase        , 1969-10-30   , 2020-02-04
420 , Myrtice    , Hailee       , 1939-07-08   , 2020-02-15
421 , Kore       , Pip          , 1955-07-25   , 2020-12-02
422 , Constance  , Magnolia     , 2008-01-30   , 2021-09-07
423 , Chloris    , McCutcheon   , 1917-11-22   , 2022-01-19
424 , Cristabel  , Warthman     , 1960-08-18   , 2020-09-06
425 , Agathe     , Noman        , 1908-06-05   , 2022-07-28
426 , Cristine   , Sisile       , 1944-08-31   , 2021-07-27
427 , Abbie      , Lesley       , 1962-06-01   , 2021-10-19
428 , Melisent   , Rhu          , 2016-07-07   , 2020-08-18
429 , Kylynn     , Tiffa        , 1972-12-03   , 2020-06-29
430 , Mallory    , Hurley       , 2013-08-28   , 2021-07-06
431 , Dolli      , Zuzana       , 1998-02-11   , 2020-08-15
432 , Viviene    , Ovid         , 1937-04-20   , 2021-03-21
433 , Zondra     , Adlare       , 1964-10-02   , 2022-02-24
434 , Selma      , Gregrory     , 1995-10-11   , 2020-06-11
435 , Regina     , Aaberg       , 1920-11-07   , 2020-11-08
436 , Rebeca     , Gaulin       , 1928-07-06   , 2020-12-15
437 , Lanae      , Andrel       , 1949-03-09   , 2021-05-08
438 , Shirlee    , Ambrosia     , 1991-04-23   , 2021-05-11
439 , Brooks     , Greenwald    , 1943-12-18   , 2020-11-16
440 , Myriam     , Kauppi       , 1941-01-17   , 2021-11-17
441 , Gwyneth    , Amand        , 1960-04-09   , 2021-07-16
442 , Danika     , Ophelia      , 2002-12-28   , 2020-06-23
443 , Wendi      , Jagir        , 1918-03-30   , 2022-03-05
444 , Amelia     , Ogren        , 1943-05-16   , 2021-08-04
445 , Nikki      , Bearnard     , 1947-05-16   , 2020-11-09
446 , Ginnie     , Tatianas     , 1927-06-17   , 2020-03-08
447 , Marjie     , Clywd        , 2009-09-10   , 2022-07-29
448 , Alameda    , Gavrila      , 1964-12-27   , 2021-06-02
449 , Moyna      , Firmin       , 1957-04-12   , 2022-04-16
450 , Shaylyn    , Monaco       , 2004-03-24   , 2021-11-12
451 , Carree     , Sparhawk     , 1987-03-28   , 2020-02-23
452 , Ileana     , Wadell       , 1970-10-21   , 2020-03-04
453 , Krystle    , Braun        , 1925-11-08   , 2022-05-16
454 , Alejandra  , Brotherson   , 2014-07-07   , 2021-07-21
455 , Karolina   , Center       , 1984-01-06   , 2021-08-14
456 , Fred       , Cleavland    , 1941-06-04   , 2021-07-26
457 , Clary      , Stelle       , 1947-09-20   , 2020-10-01
458 , Kelly      , Borrell      , 2017-01-09   , 2020-12-20
459 , Isa        , Gavrila      , 1954-03-30   , 2021-08-09
460 , Genevra    , Drus         , 1986-09-22   , 2022-06-16
461 , Maridel    , Goode        , 1924-11-14   , 2022-04-12
462 , Althea     , Darrell      , 1962-06-27   , 2021-01-06
463 , Maridel    , Anselmi      , 1933-12-24   , 2021-07-13
464 , Joy        , Ralfston     , 2007-08-29   , 2020-06-28
465 , Lolita     , Braun        , 1967-04-11   , 2020-01-25
466 , Kara-Lynn  , Liva         , 1951-02-28   , 2022-07-06
467 , Hildegaard , Boehike      , 1910-12-17   , 2021-02-01
468 , Daryl      , Sophronia    , 1959-11-17   , 2021-03-04
469 , Grier      , Allare       , 1962-12-07   , 2021-12-26
470 , Cordi      , Fry          , 1967-03-24   , 2021-08-21
471 , Bobinette  , Linehan      , 1973-12-19   , 2020-10-05
472 , Meg        , Stilwell     , 2019-05-12   , 2020-02-10
473 , Gloria     , Zaslow       , 1905-03-22   , 2021-03-06
474 , Yolane     , Moina        , 1917-08-14   , 2020-05-31
475 , Rhea       , Jorgan       , 2000-08-12   , 2020-06-21
476 , Marti      , Alisia       , 2001-04-20   , 2021-03-20
477 , Flory      , Isacco       , 1909-12-23   , 2021-11-17
478 , Ermengarde , Zitvaa       , 1938-01-17   , 2020-12-23
479 , Gerianna   , Yerkovich    , 1929-07-15   , 2021-04-28
480 , Frank      , Aldric       , 1927-06-13   , 2022-07-31
481 , Elise      , Carbo        , 1938-05-13   , 2022-02-06
482 , Dyann      , Stephie      , 2019-01-17   , 2020-02-12
483 , Heddie     , Elisha       , 2004-02-14   , 2022-03-09
484 , Chrystel   , Fitzsimmons  , 1984-11-17   , 2021-07-07
485 , Nita       , Sallyann     , 1948-04-29   , 2020-07-27
486 , Sybille    , Rudolph      , 2017-02-14   , 2021-10-01
487 , Hermione   , Ephrem       , 1933-06-29   , 2020-02-13
488 , Florencia  , Zina         , 1949-07-21   , 2021-03-12
489 , Lusa       , Alisia       , 1966-09-22   , 2022-07-11
490 , Claresta   , Kirstin      , 1925-05-19   , 2020-09-03
491 , Dorothy    , Bevin        , 1917-07-24   , 2020-12-28
492 , Dominga    , Holbrook     , 1972-06-26   , 2022-05-09
493 , Agathe     , Georas       , 1990-09-05   , 2021-11-28
494 , Cissiee    , Kimmie       , 1935-07-10   , 2022-07-20
495 , Willetta   , Zina         , 1953-09-23   , 2022-01-17
496 , Anestassia , Decato       , 2012-07-01   , 2020-11-14
497 , Jere       , Adrienne     , 1968-05-13   , 2022-04-07
498 , Misha      , Mayeda       , 1997-05-09   , 2020-03-05
499 , Angela     , Amethist     , 2017-11-11   , 2021-03-31
500 , Vivia      , Iphlgenia    , 2013-07-29   , 2021-05-10
501 , Feliza     , Turne        , 1924-10-17   , 2022-07-21
502 , Sheree     , Wittie       , 2014-06-21   , 2020-03-27
503 , Mary       , Niccolo      , 1950-11-16   , 2022-05-14
504 , Marita     , Isacco       , 1929-09-24   , 2022-04-16
505 , Gilligan   , Wesle        , 1926-10-21   , 2020-11-29
506 , Codie      , Ciro         , 1997-04-10   , 2020-05-05
507 , Noelle     , Ilka         , 1922-06-17   , 2022-02-03
508 , Myrtice    , Hourigan     , 1943-11-30   , 2020-10-25
509 , Shell      , Joli         , 1987-03-05   , 2021-07-11
510 , Sidoney    , Chem         , 1985-03-26   , 2020-08-31
511 , Melina     , Sabella      , 1995-11-20   , 2022-03-28
512 , Adelle     , Rooney       , 1997-11-04   , 2021-01-25
513 , Goldie     , Rosette      , 1917-02-09   , 2021-11-05
514 , Lexine     , Alice        , 1985-09-08   , 2022-07-22
515 , Valeda     , Wesle        , 2013-08-04   , 2022-01-11
516 , Juliane    , Natalia      , 1916-06-04   , 2020-06-11
517 , Brietta    , McLaughlin   , 1952-07-07   , 2020-06-28
518 , Violet     , Urias        , 2017-03-14   , 2020-07-22
519 , Benita     , Baylor       , 2008-05-30   , 2021-12-26
520 , Jemie      , Malvino      , 1975-05-31   , 2022-07-12
521 , Melisent   , Israeli      , 2008-12-05   , 2022-01-31
522 , Tressa     , Hieronymus   , 1964-11-16   , 2020-09-06
523 , Blake      , Simmonds     , 1918-02-16   , 2021-05-05
524 , Lulita     , Melleta      , 1985-01-17   , 2020-03-05
525 , Ardeen     , Adamsen      , 1962-11-11   , 2020-04-13
526 , Adriana    , Libna        , 1987-02-27   , 2022-07-18
527 , Quintina   , Japeth       , 2018-09-09   , 2022-03-09
528 , Liana      , Niles        , 1922-12-18   , 2020-02-21
529 , Hollie     , Constancy    , 1923-12-14   , 2022-02-25
530 , Siana      , Olympium     , 1920-06-22   , 2021-02-23
531 , Dyann      , Pernick      , 1925-10-08   , 2022-04-19
532 , Linzy      , Kress        , 1904-12-30   , 2021-09-17
533 , Clo        , Genna        , 1962-03-23   , 2021-04-06
534 , Gwenneth   , Cyrie        , 1953-07-04   , 2021-03-15
535 , Renae      , Redmond      , 1927-06-06   , 2020-02-01
536 , Melanie    , Leopold      , 1905-01-12   , 2020-03-23
537 , Glenda     , Giule        , 1961-12-28   , 2022-05-11
538 , Karlee     , McGrody      , 1902-09-12   , 2020-06-09
539 , Allis      , Imelida      , 1989-07-13   , 2020-09-13
540 , Jessamyn   , Taima        , 1969-08-15   , 2020-03-04
541 , Brianna    , Flita        , 1935-10-10   , 2022-06-16
542 , Almeta     , Center       , 1916-10-17   , 2020-10-24
543 , Hannis     , Koziara      , 1941-01-05   , 2022-07-13
544 , Brietta    , Wenoa        , 1961-06-14   , 2021-09-04
545 , Kore       , Lane         , 1968-02-16   , 2021-02-17
546 , Elvira     , Louanna      , 1999-11-10   , 2022-07-12
547 , Orelia     , Ranjiv       , 1953-06-08   , 2021-05-05
548 , Ulrike     , Ogren        , 1966-06-15   , 2021-12-25
549 , Ketti      , Chobot       , 1993-11-03   , 2020-01-09
550 , Fred       , Gusella      , 1920-02-21   , 2021-12-04
551 , Frank      , Rillings     , 1989-03-29   , 2020-02-05
552 , Aurore     , Seessel      , 1935-04-10   , 2021-04-03
553 , Kamilah    , Franza       , 1938-05-13   , 2021-12-26
554 , Karina     , Reidar       , 1990-03-14   , 2020-12-08
555 , Beatriz    , Iiette       , 2019-06-27   , 2020-10-31
556 , Ekaterina  , Ciro         , 1982-12-01   , 2020-03-17
557 , Angela     , Martguerita  , 1916-03-09   , 2020-07-03
558 , Myriam     , Artie        , 2005-05-24   , 2021-04-04
559 , Frieda     , Hollingsworth, 1946-05-22   , 2021-07-22
560 , Raf        , Richers      , 1966-04-23   , 2020-02-28
561 , Jean       , Gillan       , 1964-06-15   , 2022-04-25
562 , Tonia      , Forrer       , 1926-08-17   , 2020-02-10
563 , Emmey      , Center       , 1946-11-26   , 2022-05-16
564 , Bertine    , Ursulette    , 1983-12-27   , 2020-07-08
565 , Donetta    , Jerold       , 1949-12-15   , 2020-02-02
566 , Danny      , Anyah        , 1905-02-06   , 2022-03-05
567 , Drucie     , Schenck      , 1986-11-22   , 2021-04-30
568 , Correy     , Mendez       , 1984-10-14   , 2021-05-09
569 , Lulita     , Sigfrid      , 1995-02-19   , 2020-04-10
570 , Gui        , Brittani     , 1951-05-22   , 2021-11-29
571 , Zondra     , Lail         , 1970-03-18   , 2020-01-02
572 , Shaylyn    , Carri        , 1998-06-24   , 2020-04-13
573 , Siana      , Desai        , 1961-01-16   , 2022-01-16
574 , Georgina   , Leopold      , 2008-09-09   , 2022-02-28
575 , Ruthe      , Aldric       , 1992-05-30   , 2020-09-20
576 , Chickie    , Lilas        , 1908-07-01   , 2021-04-10
577 , Inga       , Francyne     , 1929-03-27   , 2021-01-21
578 , Tersina    , Wandie       , 2013-11-04   , 2020-08-25
579 , Dorothy    , Zrike        , 2003-12-07   , 2021-07-04
580 , Lexine     , Hermes       , 1967-08-29   , 2021-10-05
581 , Ellette    , Sacken       , 1966-02-04   , 2021-10-24
582 , Rubie      , Kenney       , 1914-09-28   , 2021-02-16
583 , Gwyneth    , Dyche        , 1900-10-08   , 2020-09-16
584 , Laurene    , Cristi       , 1918-07-25   , 2020-02-21
585 , Iseabal    , Macey        , 2011-11-03   , 2022-01-07
586 , Madelle    , Francene     , 2000-05-07   , 2022-02-09
587 , Pierette   , Shama        , 1976-09-26   , 2022-03-17
588 , Ardenia    , Cottle       , 1917-11-09   , 2020-03-07
589 , Nita       , Deny         , 1927-06-15   , 2022-06-04
590 , Roberta    , Genna        , 2018-08-05   , 2021-07-28
591 , Kary       , Kazimir      , 1931-08-07   , 2021-07-30
592 , Livvyy     , Mathilde     , 1938-11-01   , 2022-01-24
593 , Claresta   , Rurik        , 1999-03-11   , 2021-12-12
594 , Cyb        , Therine      , 1952-11-20   , 2022-06-10
595 , Noelle     , Voletta      , 1997-08-24   , 2020-10-23
596 , Aimil      , Anis         , 1912-09-29   , 2021-04-06
597 , Tamqrah    , Viddah       , 1989-04-14   , 2021-11-29
598 , Camile     , Melleta      , 2003-07-28   , 2020-03-19
599 , Minne      , Merat        , 1936-09-09   , 2020-08-23
600 , Ermengarde , Goerke       , 1939-11-07   , 2020-09-26
601 , Carilyn    , Vacuva       , 1969-10-01   , 2022-01-07
602 , Mellicent  , Anyah        , 1964-06-13   , 2021-10-02
603 , Raquela    , Birdella     , 1995-01-22   , 2020-01-02
604 , Rori       , Denis        , 1993-10-07   , 2020-09-20
605 , Moyna      , Septima      , 1921-09-28   , 2020-12-05
606 , Kathy      , Payson       , 2014-08-13   , 2021-12-22
607 , Morganica  , Hedve        , 1951-02-12   , 2020-03-30
608 , Ottilie    , Ax           , 1952-11-25   , 2021-09-06
609 , Jenilee    , Harned       , 1969-08-06   , 2022-03-24
610 , Mamie      , Lenny        , 1905-05-02   , 2022-01-14
611 , Talya      , Mauer        , 2010-08-18   , 2020-05-14
612 , Amara      , Tjon         , 1992-08-06   , 2020-09-15
613 , Hildegaard , Natalia      , 2000-06-05   , 2021-06-29
614 , Shannah    , Burch        , 1901-01-06   , 2022-06-07
615 , Nelle      , Maxi         , 1984-05-17   , 2022-06-05
616 , Blinni     , Forrer       , 2019-04-04   , 2021-07-23
617 , Linzy      , O'Neill      , 1999-09-08   , 2021-10-13
618 , Dari       , Faro         , 1946-06-06   , 2020-04-26
619 , Mildrid    , Felizio      , 1923-03-21   , 2020-03-11
620 , Leia       , Hepsibah     , 2008-10-23   , 2020-05-25
621 , Silvana    , Halla        , 2009-08-27   , 2021-01-23
622 , Benita     , Uird         , 2001-01-13   , 2020-11-12
623 , Mahalia    , Cosenza      , 1990-07-31   , 2022-02-05
624 , Tani       , Fadiman      , 1942-01-28   , 2022-01-18
625 , Shirlee    , Florina      , 1988-09-27   , 2022-01-31
626 , Genovera   , Waite        , 1980-03-09   , 2020-10-07
627 , Eadie      , Goth         , 1995-03-31   , 2020-01-12
628 , Ardys      , Ailyn        , 1937-03-25   , 2022-04-24
629 , Mignon     , Ummersen     , 1987-07-12   , 2021-08-23
630 , Iseabal    , Maurine      , 1913-01-24   , 2021-04-26
631 , Riannon    , Maurine      , 1908-01-24   , 2022-02-03
632 , Nonnah     , Hartnett     , 1949-12-10   , 2020-06-07
633 , Susan      , Alwin        , 1997-03-01   , 2021-04-24
634 , Raquela    , Clie         , 2001-02-28   , 2020-06-16
635 , Kylynn     , Ruvolo       , 2004-10-13   , 2022-04-22
636 , Lucille    , Carleen      , 1980-12-11   , 2021-12-06
637 , Dorthy     , Hunfredo     , 1970-12-19   , 2021-08-11
638 , Annaliese  , Beebe        , 1992-09-01   , 2020-09-21
639 , Merci      , Bivins       , 1940-04-15   , 2020-01-14
640 , Millie     , Gavrila      , 1975-01-02   , 2020-11-24
641 , Ardenia    , Hollingsworth, 1906-01-20   , 2022-04-26
642 , Doralynne  , Merat        , 1956-04-12   , 2022-07-28
643 , Heida      , Donell       , 1901-07-28   , 2022-07-05
644 , Shannah    , Salchunas    , 1957-12-18   , 2021-02-18
645 , Elie       , Zeeba        , 1953-05-01   , 2020-12-04
646 , Ulrike     , Nelsen       , 1968-08-09   , 2020-07-18
647 , Consuela   , Fleeta       , 1994-03-12   , 2021-02-18
648 , Alyssa     , Hashim       , 2016-12-05   , 2022-04-08
649 , Stacey     , Salchunas    , 2017-04-15   , 2021-01-31
650 , Ermengarde , Morgun       , 1917-12-18   , 2020-03-27
651 , Ethel      , Ledah        , 1947-09-22   , 2022-01-06
652 , Shell      , Chabot       , 2009-09-01   , 2022-02-23
653 , Myriam     , Vilma        , 1931-04-14   , 2021-07-24
654 , Cacilie    , Trinetta     , 1924-12-08   , 2022-03-19
655 , Deedee     , Ortrude      , 2001-05-16   , 2020-01-15
656 , Georgina   , Bendick      , 1961-11-25   , 2022-02-05
657 , Latisha    , Ciro         , 1988-08-03   , 2022-05-10
658 , Deloria    , Prouty       , 1954-05-10   , 2020-01-05
659 , Jobi       , Dorothy      , 2014-09-14   , 2022-01-27
660 , Angelique  , Fennessy     , 2006-09-01   , 2020-07-05
661 , Pollyanna  , Dahlia       , 1970-01-07   , 2021-01-10
662 , Paola      , Stephie      , 1960-10-13   , 2022-02-08
663 , Clo        , Lareena      , 1992-07-15   , 2020-12-30
664 , Leontine   , Pozzy        , 1945-06-10   , 2020-02-04
665 , Phylis     , Zola         , 2006-03-06   , 2021-01-31
666 , Lexine     , My           , 2013-12-31   , 2021-02-15
667 , Constance  , Cloris       , 1939-04-28   , 2021-02-13
668 , Shauna     , Daveta       , 1935-05-17   , 2022-02-04
669 , Ilse       , Wyn          , 2011-01-10   , 2021-09-01
670 , Elise      , Carvey       , 1940-10-28   , 2020-03-29
671 , Jaime      , Elsinore     , 1919-01-25   , 2021-05-25
672 , Devina     , Trinetta     , 1927-08-20   , 2021-03-14
673 , Mathilda   , Bollay       , 1994-10-31   , 2020-12-28
674 , Ermengarde , Fulmer       , 1937-07-19   , 2021-07-16
675 , Cassondra  , Rosette      , 1980-01-09   , 2021-09-20
676 , Fanny      , Imelida      , 1970-05-31   , 2021-10-20
677 , Sophia     , Adalbert     , 2005-07-06   , 2021-12-08
678 , Winifred   , Randene      , 1930-07-16   , 2020-08-04
679 , Courtnay   , Fabiola      , 1931-01-24   , 2022-01-02
680 , Lynnea     , Old          , 1947-08-15   , 2021-05-18
681 , Joy        , Eliathas     , 2002-03-29   , 2021-06-02
682 , Lolita     , Maribeth     , 1942-11-21   , 2020-07-14
683 , Lacie      , Socha        , 1968-05-14   , 2021-02-01
684 , Elsie      , Hutchison    , 1951-11-24   , 2020-04-04
685 , Renie      , Geffner      , 1949-05-08   , 2021-07-03
686 , Doralynne  , Lareena      , 1998-01-23   , 2021-11-07
687 , Heida      , Leonard      , 2007-08-08   , 2021-09-03
688 , Gusty      , Zitvaa       , 1932-03-26   , 2021-01-07
689 , Sara-Ann   , Kat          , 1954-07-29   , 2020-03-26
690 , Annabela   , Jorgan       , 2019-11-26   , 2020-12-22
691 , Inga       , Goddard      , 1986-05-06   , 2022-01-14
692 , Melisent   , Marcellus    , 1975-07-30   , 2021-02-06
693 , Christy    , Tillford     , 1933-03-30   , 2020-07-08
694 , Wileen     , Faso         , 2015-05-12   , 2020-11-14
695 , Danika     , Goerke       , 1965-05-04   , 2022-05-25
696 , Ulrike     , Maiah        , 1997-01-06   , 2022-03-07
697 , Lolita     , Suk          , 1904-05-26   , 2021-09-01
698 , Margalo    , Clywd        , 1936-06-27   , 2021-10-13
699 , Tera       , Ambrosia     , 1943-04-05   , 2021-08-22
700 , Calla      , Juliet       , 2007-10-22   , 2022-04-11
701 , Brietta    , Halla        , 1939-03-05   , 2020-06-17
702 , Tera       , Quinn        , 2018-04-28   , 2020-12-26
703 , Sam        , Brady        , 1965-04-02   , 2021-02-26
704 , Mady       , Yuille       , 1927-08-11   , 2020-03-03
705 , Tersina    , Tufts        , 1910-01-13   , 2020-07-17
706 , Jackie     , Noman        , 1951-03-28   , 2021-05-22
707 , Cyndie     , Sasnett      , 1951-10-12   , 2020-02-04
708 , Ariela     , Margret      , 1961-03-29   , 2022-05-28
709 , Kimmy      , Quinn        , 2007-06-01   , 2021-12-04
710 , Ebonee     , Felizio      , 1953-10-28   , 2020-04-19
711 , Stevana    , Behre        , 1915-01-04   , 2022-01-26
712 , Nariko     , Han          , 1995-03-20   , 2021-07-31
713 , Kamilah    , Barney       , 1995-10-01   , 2022-03-09
714 , Carolina   , McCutcheon   , 1975-06-04   , 2020-06-10
715 , Vivia      , Urias        , 1932-03-22   , 2021-07-21
716 , Concettina , Vale         , 2004-06-20   , 2021-01-07
717 , Kayla      , Wooster      , 1976-04-10   , 2021-05-07
718 , Mahalia    , Dex          , 1908-04-18   , 2020-09-22
719 , Valera     , Ade          , 1945-10-01   , 2020-07-31
720 , Sibella    , Alexandr     , 1975-07-23   , 2020-03-23
721 , Maisey     , Weaks        , 1930-12-30   , 2020-03-16
722 , Dennie     , Plato        , 1996-05-04   , 2022-02-03
723 , Corly      , Yerkovich    , 1927-05-16   , 2021-07-19
724 , Wileen     , Lumbard      , 1992-06-27   , 2022-07-25
725 , Jenilee    , Lacombe      , 1999-04-06   , 2022-06-26
726 , Lanna      , Ricki        , 1926-08-20   , 2020-08-24
727 , Vevay      , Brunell      , 1956-01-31   , 2021-01-05
728 , Michaelina , Bahr         , 1995-06-03   , 2022-03-02
729 , Corry      , Holtz        , 1967-10-19   , 2020-04-28
730 , Kittie     , Lipson       , 1928-11-03   , 2020-04-25
731 , Sheree     , Gabrielli    , 1943-10-25   , 2021-08-18
732 , Gloria     , Ax           , 1910-09-02   , 2022-06-04
733 , Wendi      , Melleta      , 1949-10-18   , 2021-08-30
734 , June       , Clie         , 1904-11-14   , 2020-12-02
735 , Bernie     , Monaco       , 1987-04-04   , 2022-01-20
736 , Farrah     , Xerxes       , 1971-06-11   , 2022-02-10
737 , Luci       , Valoniah     , 1942-03-23   , 2020-08-10
738 , Lynea      , Graig        , 1913-08-18   , 2020-02-10
739 , Stevana    , Thad         , 1952-11-28   , 2021-02-14
740 , Nananne    , Nedrud       , 2002-02-11   , 2020-06-13
741 , Lorenza    , Paton        , 1909-07-23   , 2021-03-27
742 , Starla     , Thar         , 1975-07-09   , 2022-05-17
743 , Dawn       , Saunderson   , 1983-10-25   , 2020-10-23
744 , Ebonee     , Ogren        , 1948-01-14   , 2020-09-19
745 , Liana      , Briney       , 1908-09-04   , 2021-02-14
746 , Laure      , Prouty       , 2008-09-15   , 2022-06-05
747 , Ellette    , Cyrie        , 1962-05-19   , 2022-01-19
748 , Kirbee     , Dahlia       , 1992-10-10   , 2021-06-12
749 , Thalia     , Mehalek      , 1909-05-28   , 2020-07-27
750 , Maryellen  , Vilma        , 1959-07-10   , 2022-07-05
751 , Genevra    , Wenda        , 1981-11-06   , 2021-05-09
752 , Alia       , Sidonius     , 1982-09-18   , 2020-07-03
753 , Ernesta    , Sammons      , 2019-01-31   , 2021-05-09
754 , Margarette , Sperling     , 1933-01-16   , 2020-02-24
755 , Rivalee    , Thunell      , 2012-05-23   , 2021-01-07
756 , Jenilee    , Tice         , 1914-05-23   , 2021-02-06
757 , Ernesta    , Adlare       , 1905-03-23   , 2020-02-21
758 , Jemie      , Cullin       , 1989-01-05   , 2021-08-27
759 , Kate       , Mehalek      , 1901-11-25   , 2020-11-15
760 , Rubie      , Leary        , 1980-10-14   , 2021-03-24
761 , Annaliese  , Loring       , 1963-01-05   , 2021-03-24
762 , Ingrid     , Brady        , 1923-11-04   , 2020-07-23
763 , Kellen     , Ventre       , 1940-09-22   , 2020-07-29
764 , Fidelia    , Giff         , 2007-05-21   , 2020-03-17
765 , Pierette   , Tybald       , 1909-06-29   , 2021-10-04
766 , Alyssa     , Johnsson     , 1932-05-02   , 2021-03-09
767 , Jsandye    , Catie        , 1903-07-05   , 2020-12-09
768 , Gaylene    , Granoff      , 1967-03-24   , 2021-04-30
769 , Gloria     , Meli         , 1921-04-01   , 2022-01-18
770 , Shaylyn    , Ardeha       , 2013-02-11   , 2022-06-24
771 , Collen     , Dimitris     , 1948-07-27   , 2020-11-16
772 , Althea     , Kosey        , 1954-04-23   , 2021-05-22
773 , Tori       , Khorma       , 1957-09-11   , 2022-07-21
774 , Karena     , Ferino       , 1975-09-25   , 2020-11-20
775 , Fayre      , Phyllis      , 2015-06-17   , 2020-12-06
776 , Dolli      , Blake        , 1931-04-17   , 2021-10-12
777 , Lizzie     , Melleta      , 1966-04-08   , 2021-12-07
778 , Florie     , Idelia       , 1934-03-26   , 2020-07-28
779 , Micheline  , Fontana      , 1943-01-20   , 2020-11-05
780 , Tera       , Ferrell      , 1924-02-10   , 2020-01-22
781 , Dulce      , Himelman     , 1958-09-05   , 2021-06-23
782 , Elena      , Dyche        , 1954-10-11   , 2021-11-03
783 , Dolli      , Casimir      , 2007-07-05   , 2020-10-09
784 , Hannis     , Hillel       , 1953-12-23   , 2022-07-16
785 , Fidelia    , Yoko         , 2001-04-29   , 2022-06-07
786 , Viviene    , Clywd        , 1902-12-28   , 2020-09-27
787 , Pierette   , Goode        , 1937-07-05   , 2021-01-29
788 , Agnese     , Ledah        , 1927-10-02   , 2021-10-12
789 , Fredericka , Nelsen       , 1965-03-03   , 2020-05-24
790 , Cyndie     , Bettine      , 1922-01-13   , 2022-06-30
791 , Drucie     , Charmine     , 1938-09-16   , 2022-06-15
792 , Shauna     , Faust        , 2001-05-29   , 2021-05-12
793 , Dacia      , Brieta       , 1915-06-01   , 2020-12-10
794 , Ernesta    , Lauraine     , 1963-10-20   , 2022-04-01
795 , Leona      , Kaja         , 1912-12-18   , 2021-03-25
796 , Camile     , Eiser        , 2014-06-19   , 2022-03-08
797 , Kalina     , Celestine    , 1900-02-01   , 2020-06-26
798 , Tomasina   , My           , 1953-12-23   , 2022-01-09
799 , Paola      , Brenn        , 1993-05-26   , 2020-05-23
800 , Rhea       , Daniele      , 2010-05-07   , 2020-05-29
801 , Yvonne     , Aaberg       , 1991-12-22   , 2022-07-21
802 , Meg        , McAdams      , 1931-06-16   , 2020-06-11
803 , Maisey     , Chauncey     , 2017-08-19   , 2020-09-01
804 , Leona      , Evangelia    , 1921-12-14   , 2021-03-25
805 , Wileen     , Cohdwell     , 1983-03-15   , 2020-11-23
806 , Petronia   , Saree        , 1914-12-22   , 2022-04-14
807 , Ada        , Hathaway     , 1907-04-22   , 2021-06-28
808 , Nita       , Therine      , 1962-06-27   , 2020-04-15
809 , Betta      , Birdella     , 2006-08-10   , 2020-08-16
810 , Rosanne    , Graig        , 1950-05-24   , 2021-07-27
811 , Vere       , Wenda        , 1918-04-27   , 2020-10-26
812 , Kamilah    , Gusella      , 2011-07-24   , 2021-12-06
813 , Roxane     , Ilka         , 2012-10-11   , 2021-06-23
814 , Annice     , Maisey       , 1949-02-27   , 2021-01-21
815 , Chloris    , Eno          , 1991-02-08   , 2021-01-10
816 , Brana      , Saree        , 1959-01-29   , 2022-03-14
817 , Adriana    , Percy        , 1946-12-18   , 2022-05-21
818 , Cindelyn   , Esmaria      , 1977-06-18   , 2021-06-15
819 , Carlie     , Aida         , 1934-03-15   , 2020-03-19
820 , Kellen     , Gemini       , 1983-02-14   , 2021-03-26
821 , Benita     , Orlene       , 1970-05-22   , 2021-07-05
822 , Dione      , Even         , 1948-09-01   , 2020-03-23
823 , Jeanna     , Doig         , 1920-10-18   , 2020-12-21
824 , Tressa     , Shields      , 1998-01-04   , 2021-05-21
825 , Stacey     , Fancie       , 2001-09-23   , 2022-05-27
826 , Collen     , Letsou       , 1955-05-17   , 2020-11-24
827 , Doro       , Dorcy        , 2008-05-09   , 2020-06-02
828 , Rozele     , Oster        , 1951-05-18   , 2021-12-23
829 , Netty      , Pillsbury    , 1925-07-04   , 2020-10-17
830 , Leeanne    , Eno          , 1976-08-16   , 2021-06-01
831 , Marinna    , Burnside     , 1987-10-02   , 2021-10-10
832 , Belinda    , Catie        , 1910-05-25   , 2022-04-06
833 , Dorene     , Adlare       , 1901-09-29   , 2021-02-20
834 , Trixi      , Waite        , 1958-01-05   , 2020-02-16
835 , Evaleen    , Hebner       , 1938-07-04   , 2021-03-30
836 , Hildegaard , Franza       , 2004-04-20   , 2022-01-25
837 , Alejandra  , Gregrory     , 2018-12-08   , 2021-01-26
838 , Carlie     , Percy        , 1936-04-12   , 2022-04-24
839 , Paule      , Charmine     , 2008-08-28   , 2021-08-16
840 , Leontine   , Kaete        , 1982-01-12   , 2021-03-29
841 , Ann-Marie  , Herrera      , 2019-07-06   , 2020-12-29
842 , Antonietta , Holtz        , 1941-04-28   , 2021-12-21
843 , Ardys      , Kravits      , 1990-06-15   , 2020-12-12
844 , Joeann     , Evangelia    , 2016-05-05   , 2020-01-27
845 , Pollyanna  , Haldas       , 1994-01-05   , 2022-07-16
846 , Tilly      , Margret      , 1962-10-16   , 2020-04-25
847 , Cecile     , Hylan        , 1946-08-10   , 2020-12-05
848 , Dede       , Janith       , 2000-05-24   , 2021-06-08
849 , Kenna      , O'Rourke     , 1980-08-23   , 2020-05-18
850 , Tera       , Weaks        , 1943-01-18   , 2021-11-06
851 , Stevana    , Emanuel      , 1916-02-21   , 2021-08-15
852 , Alyda      , Sothena      , 2008-03-01   , 2022-03-21
853 , Halette    , Eiser        , 1916-01-15   , 2022-05-18
854 , Maryellen  , Ralfston     , 1969-02-15   , 2021-09-11
855 , Hildegaard , Eckblad      , 2009-04-11   , 2020-11-04
856 , Carmencita , Israeli      , 1940-07-15   , 2021-08-09
857 , Carilyn    , Fink         , 1913-06-24   , 2021-12-23
858 , Carmencita , Toni         , 1954-12-07   , 2020-08-31
859 , Phylis     , Devlen       , 2007-05-22   , 2020-10-07
860 , Tarra      , Sophronia    , 1912-11-15   , 2021-09-02
861 , Valli      , Gower        , 1925-04-01   , 2021-01-23
862 , Mildrid    , Uund         , 1914-05-08   , 2021-08-12
863 , Violet     , Sadowski     , 1940-05-05   , 2020-07-31
864 , Ariela     , Jorgan       , 1991-05-05   , 2020-10-27
865 , Kalina     , Jenness      , 1997-03-27   , 2020-11-05
866 , Peri       , Hilbert      , 1950-06-16   , 2020-11-07
867 , Aurore     , Maroney      , 1910-04-10   , 2021-10-25
868 , Rochette   , Rebecka      , 1953-01-08   , 2022-06-16
869 , Celestyna  , Docilla      , 2000-10-04   , 2022-03-27
870 , Ira        , Suanne       , 1963-11-11   , 2020-07-10
871 , Olivette   , Codding      , 1904-12-10   , 2021-09-27
872 , Janeczka   , Pitt         , 1949-05-03   , 2020-07-25
873 , Danika     , Celestine    , 2000-10-08   , 2022-02-14
874 , Ursulina   , Azeria       , 2005-09-25   , 2021-11-14
875 , Edee       , Anderea      , 2003-06-21   , 2020-09-01
876 , Lindie     , Richers      , 1979-04-27   , 2022-02-26
877 , Jacenta    , Wadell       , 1984-02-08   , 2021-04-04
878 , Ardenia    , Ivens        , 1968-06-02   , 2020-10-23
879 , Gale       , Gregrory     , 2005-02-12   , 2022-07-17
880 , Di         , Dorcy        , 1931-04-14   , 2020-10-29
881 , Adelle     , Chauncey     , 2006-02-14   , 2022-03-09
882 , Chere      , Sabella      , 1907-03-25   , 2020-11-25
883 , Silvana    , Erlandson    , 2012-05-05   , 2022-03-23
884 , Penelopa   , Esmaria      , 1927-06-09   , 2022-02-22
885 , Joane      , Jacqui       , 1947-04-14   , 2022-03-07
886 , Gabriellia , Ogren        , 1945-10-06   , 2020-02-09
887 , Danika     , Melony       , 1916-12-18   , 2020-02-13
888 , Goldie     , Karylin      , 1955-08-23   , 2020-01-20
889 , Sherrie    , Lane         , 1942-12-17   , 2021-10-18
890 , Marti      , Tayib        , 1949-08-04   , 2020-03-01
891 , Concettina , Merell       , 1937-04-14   , 2021-02-23
892 , Linzy      , Leifeste     , 2009-07-25   , 2020-11-01
893 , Donnie     , Ariella      , 1903-03-02   , 2021-04-09
894 , Lory       , Ciro         , 2003-09-21   , 2020-05-15
895 , Kara-Lynn  , Atonsah      , 1996-07-01   , 2020-01-27
896 , Juliane    , Bluh         , 1973-07-21   , 2020-09-03
897 , Deedee     , Autrey       , 1962-07-10   , 2020-09-06
898 , Inga       , Hunfredo     , 1977-07-30   , 2021-05-10
899 , Sheelagh   , Bobbee       , 1904-07-27   , 2021-02-28
900 , Alyda      , Chrystel     , 1937-05-10   , 2021-08-12
901 , Myrtice    , Ethban       , 1963-03-01   , 2021-11-25
902 , Florencia  , Percy        , 2012-07-27   , 2021-08-20
903 , Phedra     , Radu         , 1915-11-13   , 2020-09-05
904 , Gwyneth    , Harl         , 1913-12-03   , 2021-01-11
905 , Olivette   , Stuart       , 1990-02-14   , 2020-06-17
906 , Annice     , Riordan      , 1993-07-23   , 2021-08-16
907 , Mamie      , Hermes       , 1985-10-13   , 2022-04-03
908 , Elyssa     , Brunell      , 1984-07-05   , 2021-11-29
909 , Adele      , Hirsch       , 1992-08-11   , 2021-12-15
910 , Sheelagh   , Lorenz       , 1996-10-13   , 2022-05-15
911 , Blinni     , Hourigan     , 1909-04-19   , 2021-07-27
912 , Cherilyn   , Eben         , 1929-01-11   , 2020-06-16
913 , Sharlene   , Sabella      , 1978-12-10   , 2022-02-19
914 , Oona       , Argus        , 1960-02-29   , 2022-02-10
915 , Morganica  , Elo          , 2019-08-21   , 2021-12-21
916 , Shandie    , Arquit       , 1919-01-21   , 2022-02-13
917 , Berget     , Cornelia     , 1904-07-28   , 2020-09-22
918 , Emma       , Faro         , 2013-01-30   , 2021-12-15
919 , Lucille    , Nadia        , 1908-11-15   , 2020-12-06
920 , Dania      , Maisey       , 1922-03-22   , 2021-09-01
921 , Babita     , O'Rourke     , 1901-05-29   , 2020-07-15
922 , Roxane     , Toffic       , 2019-08-17   , 2021-07-09
923 , Rhea       , Love         , 1952-04-04   , 2021-10-08
924 , Lusa       , Alva         , 1986-02-19   , 2021-01-22
925 , Rori       , Clara        , 1969-08-10   , 2020-01-04
926 , Lynea      , Florina      , 1989-10-24   , 2020-01-09
927 , Gabi       , Rogerio      , 1917-09-10   , 2020-04-21
928 , Jean       , Ephrem       , 1937-12-12   , 2020-02-27
929 , Corina     , Mendez       , 1937-03-20   , 2020-08-09
930 , Jenilee    , Newell       , 1915-09-07   , 2021-05-21
931 , Goldie     , Munn         , 1957-08-31   , 2021-11-22
932 , Xylina     , Macey        , 1943-02-25   , 2020-02-09
933 , Orsola     , Heidt        , 1925-10-23   , 2020-02-16
934 , Brena      , Behre        , 1997-09-14   , 2020-12-20
935 , Aeriela    , Bashemeth    , 1925-06-04   , 2021-11-21
936 , Kristina   , Yerkovich    , 1949-12-08   , 2022-05-08
937 , Kary       , Loring       , 1944-09-10   , 2020-07-14
938 , Fanchon    , Valoniah     , 1906-05-17   , 2022-01-04
939 , Kalina     , Elephus      , 1979-09-24   , 2022-01-21
940 , Jillayne   , Jarib        , 1934-07-28   , 2020-05-17
941 , Zsa Zsa    , Medrek       , 1912-11-26   , 2021-10-23
942 , Gertrud    , Wyn          , 1932-06-17   , 2020-10-03
943 , Lacie      , Quent        , 1958-03-23   , 2021-10-13
944 , Rhea       , Daniele      , 1929-03-04   , 2021-11-04
945 , Sharlene   , Ursulette    , 2001-08-14   , 2020-03-20
946 , Louella    , Eldrid       , 1917-04-07   , 2022-07-04
947 , Rochette   , Felizio      , 1950-04-18   , 2021-11-01
948 , Kaia       , Kiyoshi      , 1996-08-17   , 2020-11-14
949 , Carly      , Bertold      , 1983-11-03   , 2020-03-29
950 , Raf        , Koehler      , 1959-06-21   , 2021-03-25
951 , Berta      , Maisey       , 1913-01-15   , 2021-03-19
952 , Jackie     , Weide        , 2011-02-24   , 2020-08-26
953 , Florie     , Goddard      , 1967-07-22   , 2021-11-12
954 , Ruthe      , Ellord       , 2003-04-24   , 2022-05-22
955 , Sophia     , Carolin      , 2007-12-29   , 2020-09-28
956 , Bettine    , Carlson      , 2013-06-02   , 2020-09-03
957 , Ann-Marie  , Reidar       , 1991-10-11   , 2021-01-16
958 , Emylee     , Mintz        , 1905-12-07   , 2022-05-12
959 , Mellicent  , Roumell      , 1987-06-18   , 2022-02-28
960 , Tressa     , Connelly     , 1906-07-30   , 2021-09-06
961 , Christian  , Ehrman       , 1917-11-14   , 2020-09-23
962 , Demetris   , Lumbard      , 2000-12-22   , 2021-11-15
963 , Cherilyn   , Aida         , 2012-09-05   , 2020-05-06
964 , Allyce     , Malina       , 2018-10-10   , 2020-01-24
965 , Pierette   , Kesley       , 1952-08-06   , 2022-03-14
966 , Merrie     , Nickola      , 1981-05-04   , 2021-03-23
967 , Jenilee    , Old          , 1943-04-20   , 2022-06-22
968 , Nerta      , Darbie       , 2008-01-17   , 2020-08-29
969 , Morganica  , Rolf         , 2000-11-22   , 2020-04-09
970 , Vonny      , Leffen       , 1940-09-04   , 2021-11-22
971 , Clary      , Elephus      , 1988-09-29   , 2022-05-09
972 , Kimmy      , Paine        , 1961-05-15   , 2020-08-17
973 , Nananne    , Sisile       , 1942-09-26   , 2021-09-08
974 , Benita     , Toor         , 1951-06-10   , 2021-02-17
975 , Neila      , Bow          , 1963-12-19   , 2020-04-22
976 , Delilah    , Reneta       , 1908-11-09   , 2020-09-10
977 , Desirae    , Iaverne      , 2017-07-22   , 2020-09-13
978 , Doralynne  , Chesna       , 1939-12-15   , 2020-05-24
979 , Raina      , Pip          , 1997-12-04   , 2020-12-23
980 , Elmira     , Wallis       , 1969-12-23   , 2021-09-11
981 , Cissiee    , Rodmann      , 1971-11-27   , 2020-08-05
982 , Selia      , Faria        , 1900-10-13   , 2020-03-06
983 , Alisha     , Raychel      , 2018-10-31   , 2021-06-14
984 , Ana        , Magnolia     , 2006-08-06   , 2021-03-30
985 , Kerrin     , Ranjiv       , 1955-08-25   , 2021-05-21
986 , Delilah    , Vittoria     , 2004-06-18   , 2022-02-24
987 , Madelle    , Weinreb      , 1925-03-02   , 2022-03-30
988 , Kate       , Lattie       , 1915-01-23   , 2022-03-03
989 , Celestyna  , Peonir       , 2008-01-24   , 2021-11-09
990 , Ira        , Merna        , 1950-05-04   , 2021-04-12
991 , Krystle    , Mike         , 1967-08-27   , 2022-06-05
992 , Desirae    , Bow          , 2018-11-12   , 2020-12-28
993 , Evita      , Voletta      , 1965-03-18   , 2022-02-05
994 , Miquela    , Revkah       , 1926-08-29   , 2020-03-28
995 , Maud       , Phyllis      , 1997-12-23   , 2021-12-12
996 , Jessy      , Emmy         , 1983-11-29   , 2021-02-04
997 , Meg        , Danby        , 1951-01-24   , 2020-04-23
998 , Nollie     , Gert         , 1921-03-16   , 2021-11-28
999 , Katharina  , Lay          , 1966-05-06   , 2022-04-12
1000, Sarette    , Dichy        , 1926-08-08   , 2021-03-02
1001, Keelia     , Leifeste     , 2008-02-19   , 2020-09-19
1002, Rochette   , Ader         , 1962-07-22   , 2020-03-08
1003, Maryellen  , Sundin       , 1912-06-25   , 2021-07-06
1004, Lila       , Kevon        , 1928-08-03   , 2021-10-09
1005, Mureil     , Demitria     , 1953-07-30   , 2020-01-03
1006, Clary      , Edvard       , 2000-12-21   , 2022-03-01
1007, Joelly     , Niccolo      , 1925-02-09   , 2022-06-15
1008, Caryl      , Bryna        , 2018-01-18   , 2022-02-17
1009, Laure      , Grosz        , 1974-02-13   , 2021-09-03
1010, Heddie     , Linehan      , 1980-05-04   , 2020-03-18
1011, Cindelyn   , Infield      , 1915-11-14   , 2020-03-16
1012, Lyssa      , Percy        , 1985-11-16   , 2021-05-21
1013, Carree     , Prober       , 1941-12-05   , 2021-05-02
1014, Randa      , Lesley       , 1961-03-29   , 2021-07-05
1015, Sheree     , Fairweather  , 1978-09-22   , 2022-01-10
1016, Leia       , Percy        , 1995-05-17   , 2020-03-16
1017, Jenda      , Seessel      , 2013-10-14   , 2020-11-03
1018, Peri       , Gwenore      , 1941-07-16   , 2021-08-14
1019, Fidelia    , Abbot        , 1965-07-19   , 2020-12-01
1020, Elvira     , Fennessy     , 1909-11-05   , 2021-07-30
1021, Tiffie     , Desai        , 1917-11-30   , 2020-05-19
1022, Lisette    , Roarke       , 1914-09-19   , 2022-03-24
1023, Andree     , Brittani     , 1963-10-08   , 2020-08-21
1024, Codie      , Bebe         , 2006-03-10   , 2021-02-13
1025, Letizia    , Edmund       , 1921-04-28   , 2020-02-19
1026, Cyndie     , Sperling     , 1974-11-13   , 2020-09-28
1027, Molli      , Ephrem       , 1983-08-08   , 2021-03-14
1028, Lisette    , Aprile       , 1901-10-30   , 2021-10-30
1029, Marguerite , Billye       , 1996-10-06   , 2020-09-23
1030, Vonny      , Suanne       , 1919-08-14   , 2020-05-11
1031, Angela     , Shaver       , 1943-02-16   , 2020-08-25
1032, Joelly     , Melony       , 1936-11-30   , 2021-03-18
1033, Benita     , Alabaster    , 1905-07-18   , 2020-01-23
1034, Alisha     , Anestassia   , 1982-12-08   , 2021-04-11
1035, Tamqrah    , Weinreb      , 1922-03-06   , 2021-12-31
1036, Blake      , Marijo       , 1908-05-10   , 2022-07-30
1037, Oona       , Fabiola      , 1993-11-16   , 2020-03-09
1038, Cristine   , Nadia        , 2015-03-28   , 2020-10-19
1039, Jan        , Rozanna      , 2013-07-13   , 2022-07-21
1040, Ilse       , Kiersten     , 2019-12-23   , 2022-06-13
1041, Chrystel   , Payson       , 1902-01-29   , 2021-08-25
1042, Orsola     , Brodench     , 1982-09-17   , 2021-05-27
1043, Almeta     , Trey         , 2004-08-17   , 2021-10-01
1044, Carmencita , Chesna       , 1927-04-03   , 2020-07-02
1045, Eugine     , Tiffa        , 1944-11-22   , 2020-09-10
1046, Dyann      , Vilma        , 2007-06-28   , 2021-10-04
1047, Pierette   , Rurik        , 1946-11-02   , 2021-03-08
1048, Dorene     , Lorenz       , 1994-01-21   , 2020-06-28
1049, Fernande   , Rossner      , 1943-07-17   , 2020-03-30
1050, Ann-Marie  , Ricki        , 1918-02-20   , 2021-05-21
1051, Roxane     , Schalles     , 2013-04-04   , 2021-08-24
1052, Ilse       , Sparhawk     , 1925-04-26   , 2022-04-04
1053, Jaime      , My           , 1917-04-22   , 2020-04-28
1054, Sallie     , Waldron      , 1967-02-21   , 2021-11-18
1055, Sybille    , Means        , 1960-04-05   , 2022-04-26
1056, Marnia     , Bow          , 1946-08-18   , 2021-07-11
1057, Alameda    , Sheedy       , 2015-11-30   , 2020-08-02
1058, Gloria     , Nore         , 1941-05-19   , 2020-06-06
1059, Vevay      , Lanita       , 1954-05-31   , 2021-07-26
1060, Kaia       , Marsden      , 1984-02-06   , 2021-11-05
1061, Layla      , Philipp      , 1973-05-10   , 2020-06-26
1062, Bibby      , Jerold       , 1975-10-09   , 2021-05-06
1063, Glynnis    , Armanda      , 1905-10-20   , 2021-09-12
1064, Tami       , Eachern      , 1931-10-30   , 2022-01-16
1065, Kerrin     , Elephus      , 1976-08-30   , 2021-11-24
1066, Glenda     , Niles        , 1999-06-27   , 2020-11-28
1067, Cecile     , Linehan      , 1937-05-27   , 2020-07-25
1068, Maye       , Uird         , 1996-05-02   , 2020-07-05
1069, Lucille    , Himelman     , 1911-10-19   , 2020-03-24
1070, Hildegaard , Donoghue     , 1920-08-21   , 2020-04-20
1071, Chere      , Trey         , 1994-01-28   , 2021-09-23
1072, Pollyanna  , Danby        , 1985-02-07   , 2021-02-28
1073, Roslyn     , Ferino       , 1936-05-28   , 2020-04-11
1074, Perry      , Modie        , 1979-02-26   , 2021-10-02
1075, Micheline  , Bearnard     , 1911-12-14   , 2021-11-27
1076, Mallory    , Tillford     , 1970-04-09   , 2020-02-26
1077, Modestia   , Hutchison    , 1984-10-01   , 2020-07-21
1078, Asia       , Cressida     , 1961-04-11   , 2021-09-04
1079, Lizzie     , Judye        , 1925-01-10   , 2020-06-10
1080, Leeanne    , Wildermuth   , 1943-08-04   , 2022-04-27
1081, Feliza     , Mata         , 1973-04-23   , 2022-03-10
1082, Fanny      , Thomasina    , 1997-09-23   , 2020-09-15
1083, Basia      , Fiester      , 2006-10-03   , 2021-08-24
1084, Averyl     , Plato        , 1928-11-18   , 2021-08-02
1085, Shandie    , Olin         , 1964-06-16   , 2021-06-10
1086, Kristan    , Longfellow   , 1959-09-02   , 2020-07-28
1087, Noelle     , Daniele      , 1969-07-08   , 2022-01-09
1088, Daune      , Zitvaa       , 1923-04-23   , 2020-12-23
1089, Max        , Junie        , 1909-12-05   , 2020-07-17
1090, Darci      , Lewes        , 1921-11-16   , 2022-01-02
1091, Stevana    , Colleen      , 1943-11-19   , 2021-10-04
1092, Debee      , Tyson        , 1944-02-10   , 2022-01-22
1093, Inga       , Gaspard      , 1924-06-25   , 2022-01-04
1094, Grier      , Bettine      , 1983-02-19   , 2020-07-20
1095, Olivette   , Urania       , 1957-01-25   , 2022-03-30
1096, Leeanne    , Seumas       , 2002-10-26   , 2022-07-13
1097, Maryellen  , Rubie        , 1959-02-26   , 2020-02-08
1098, Briney     , Teryn        , 1980-10-28   , 2022-05-25
1099, Lory       , Center       , 1972-06-27   , 2021-07-01
